…
> 
> ### ** Examples
> 
> # Get the country projection for cervical cancer screening for the year 2024
> target_population <- get_cervical_target_population(2024)
> target_population
# A tibble: 1 × 2
  country   target
  <chr>      <dbl>
1 Kenya   1112735.
> 
> # Get the projection for cervical cancer screening for 2022 by county
> target_population <- get_cervical_target_population(2022, level = 'county')
> target_population
# A tibble: 47 × 3
# Groups:   country [1]
   country county          target
   <chr>   <fct>            <dbl>
 1 Kenya   Baringo         12705.
 2 Kenya   Bomet           18680.
 3 Kenya   Bungoma         33151.
 4 Kenya   Busia           18221.
 5 Kenya   Elgeyo Marakwet  9093.
 6 Kenya   Embu            15342.
 7 Kenya   Garissa         15238.
 8 Kenya   Homa Bay        23316.
 9 Kenya   Isiolo           5062.
10 Kenya   Kajiado         29055.
# ℹ 37 more rows
> 
> # Get the projection for CBE for 2022 by county
> target_population <- get_breast_cbe_target_population(2022, level = 'county')
> target_population
# A tibble: 47 × 3
# Groups:   country [1]
   country county          target
   <chr>   <fct>            <dbl>
 1 Kenya   Baringo          9206.
 2 Kenya   Bomet           13021.
 3 Kenya   Bungoma         24429.
 4 Kenya   Busia           13914.
 5 Kenya   Elgeyo Marakwet  6599.
 6 Kenya   Embu            11919.
 7 Kenya   Garissa          9730.
 8 Kenya   Homa Bay        17383.
 9 Kenya   Isiolo           3476.
10 Kenya   Kajiado         18656.
# ℹ 37 more rows
…
