Data Dimensions • khisr
…
Data elements in DHIS2 define what is being represented by a
particular data value. They act as labels or variables describing the
nature of the data. Examples include counts of malaria cases or the
number of women screened.

Data elements can represent numerical values that can be aggregated
(summed or averaged) from monthly to quarterly values. They can also be
disaggregated (separated into components) or aggregated (summed) from
facility to district to country.

# Retrieves all the data elements in DHIS2
data_elements <- get_data_elements()
data_elements
#> # A tibble: 15,303 × 2
#>    name                                                                    id   
#>    <chr>                                                                   <chr>
#>  1 ""                                                                      ioUh…
#>  2 "0000000 INCOME & EXPENDITURE STATEMENT"                                RvNJ…
#>  3 "1000000 Income/Revenue"                                                zo5v…
#>  4 "10.1 Residential"                                                      tZ3q…
#>  5 "10.1 The facility has a sound fnancial plan that is adequately funded" oYdx…
#>  6 "10.2 Commercial"                                                       PQNa…
#>  7 "10.2 Financial resources are provided and used towards Quality Manage… OnDA…
#>  8 "10.3 Availability of updated fee structure, strategically and promine… UXQg…
#>  9 "10.3 Institutional"                                                    FGHs…
#> 10 "10.4 Facility improvement/ Quality management funds are effciently us… y9ui…
#> # ℹ 15,293 more rows

Related data elements are grouped into a logical collection referred
to as data element groups. The data element groups do
not directly contain data but reference members data elements. Therefore
data element groups provide a way manage and analyze related data
elements.

# Retrieves all the data element groups
data_element_groups <- get_data_element_groups()
data_element_groups
#> # A tibble: 259 × 2
#>    name                                           id         
#>    <chr>                                          <chr>      
#>  1 "706D Haemovigilance Tool"                     EvSFB0kFshj
#>  2 "751_BFCI FORM "                               Q3ZqDNTgosn
#>  3 "Adverse Events Following Immunization (AEFI)" zHoxBNmNfej
#>  4 "AFP Smear"                                    jjm7ipMtusz
#>  5 "AMR - Acinetobacter Isolates"                 uqIQDfIInK1
#>  6 "AMR - Escherichia coli isolates"              VjgPbuOqvBq
#>  7 "AMR - Klebsiella species isolates"            SMINXpqL0s5
#>  8 "AMR - Pseudomonas aeruginosa isolates"        NpOK7Em3QRk
#>  9 "AMR - Staphylococcus aureus Isolates"         B3VgKffq78S
#> 10 "Antenatal client first visits"                XTHYIz6qsdX
#> # ℹ 249 more rows
…
