Getting Started • khisr
…
!in
%.~in%
Find objects not matching 1 or more values

Working with metadata filters

Basic usage of the metadata filter

# Retrieve organisation units by county (level 2)
county <- get_organisation_units(level %.eq% '2')
county
#> # A tibble: 47 × 2
#>   name                   id         
#>   <chr>                  <chr>      
#> 1 Baringo County         vvOK1BxTbet
#> 2 Bomet County           HMNARUV2CW4
#> 3 Bungoma County         KGHhQ5GLd4k
#> 4 Busia County           Tvf1zgVZ0K4
#> 5 Elgeyo Marakwet County MqnLxQBigG0
#> # ℹ 42 more rows
…
data_element_id <- c('cXe64Yk0QMY', 'XEX93uLsAm2')

# Retrieve data elements by ID using operator in
data_elements <- get_data_elements(id %.in% data_element_id)
data_elements
#> # A tibble: 2 × 2
#>   name         id         
#>   <chr>        <chr>      
#> 1 CBE-Abnormal XEX93uLsAm2
#> 2 CBE-Normal   cXe64Yk0QMY

# Retrieve data elements by filtering using dataElementGroups
data_elements <- get_data_elements(dataElementGroups.name %.like% 'moh 705')
data_elements
#> # A tibble: 96 × 2
#>   name                        id         
#>   <chr>                       <chr>      
#> 1 Abortion                    IrWSgk9GsUm
#> 2 All other diseases          KxT47tbKHsd
#> 3 Anaemia cases               kkUHOwGMawD
#> 4 Arthritis, Joint pains etc. waNhWrS3HL6
#> 5 Asthma                      L82lvvxVaqt
#> # ℹ 91 more rows
…
# Using the startDate and endDate with organisation unit keyword 'USER_ORGUNIT'
get_analytics(
    dx %.d% c('siOyOiOJpI8', 'Lt0FqtnHraW', 'OoakJhWiyZp'),
    ou %.d% 'USER_ORGUNIT',
    pe %.d% 'all',
    startDate = '2023-07-01',
    endDate = '2023-12-31'
)
#> # A tibble: 18 × 4
#>   dx          ou          pe       value
#>   <chr>       <chr>       <chr>    <dbl>
#> 1 siOyOiOJpI8 HfVjCurKxh2 202310  752039
#> 2 siOyOiOJpI8 HfVjCurKxh2 202312  649801
#> 3 Lt0FqtnHraW HfVjCurKxh2 202307 1122201
#> 4 OoakJhWiyZp HfVjCurKxh2 202308  367153
#> 5 siOyOiOJpI8 HfVjCurKxh2 202311  670801
#> # ℹ 13 more rows
…
