Retrieves Data Set Reporting Rate Metrics — get_data_sets_by_level • khisr
…
get_organisations_by_level() for getting the organisations units

get_data_sets() for retrieving the data sets

    Examples

# The MoH 745 Cancer Screening Program Monthly Summary Form
dataset_id = c('WWh5hbCmvND')

# Download data from February 2023 to current date
data <- get_data_sets_by_level(dataset_ids = dataset_id,
                               start_date = '2023-02-01')
data
#> # A tibble: 21 × 10
#>    kenya dataset    period     month  year reporting_rate reporting_rate_on_time
#>    <chr> <chr>      <date>     <ord> <dbl>          <dbl>                  <dbl>
#>  1 Kenya MoH 745 C… 2024-10-01 Octo…  2024            0                      0  
#>  2 Kenya MoH 745 C… 2023-06-01 June   2023           64.5                   60.3
#>  3 Kenya MoH 745 C… 2023-05-01 May    2023           62.4                   58.8
#>  4 Kenya MoH 745 C… 2023-03-01 March  2023           63.9                   57.0
#>  5 Kenya MoH 745 C… 2024-05-01 May    2024           63.8                   59.6
#>  6 Kenya MoH 745 C… 2024-06-01 June   2024           65.0                   62.7
#>  7 Kenya MoH 745 C… 2023-02-01 Febr…  2023           64.5                   54.4
#>  8 Kenya MoH 745 C… 2023-04-01 April  2023           60.2                   53.8
#>  9 Kenya MoH 745 C… 2024-03-01 March  2024           63.3                   60.1
#> 10 Kenya MoH 745 C… 2024-04-01 April  2024           63.0                   58.9
#> # ℹ 11 more rows
#> # ℹ 3 more variables: actual_reports <dbl>, actual_reports_on_time <dbl>,
#> #   expected_reports <dbl>
…
